

  <nav>

      <ul>

          <li><a href="home.html">Home</a></li>

          <li><a href="jtgg.html">Jtgg</a></li>

          <li><a href="over_ons.html">Over ons</a></li>

          <ul>

              <li><a href="aq.html">Aq</a></li>

              <li><a href="portfolio_len.html">Portfolio</a></li>

          </ul>

          </li>

          <li><a href="contact_len.html">Contact</a></li>

      </ul>

  </nav>

</header>


